%YAML 1.1
%TAG !u! tag:unity3d.com,2011:
--- !u!114 &11400000
MonoBehaviour:
  m_ObjectHideFlags: 0
  m_CorrespondingSourceObject: {fileID: 0}
  m_PrefabInstance: {fileID: 0}
  m_PrefabAsset: {fileID: 0}
  m_GameObject: {fileID: 0}
  m_Enabled: 1
  m_EditorHideFlags: 0
  m_Script: {fileID: 11500000, guid: 00ee690a30e67ef4fb030026b37df14b, type: 3}
  m_Name: EnemyLevelCollection
  m_EditorClassIdentifier: Assembly-CSharp::EnemyLevelCollection
  records:
  - Level: 1
    records:
    - enemyType: 0
      atribute:
        level: 1
        HP: 30
        Amor: 0
        movementSpeed: 5
        flyHeight: 0
        damage: 5
        typeMove: 0
        attackCooldown: 2
        skillFlySpeed: 50
        skillType: 0
      enemyPrefabs: {fileID: 8846445596957168667, guid: b5e3394acc1b6934796a565e48cd1751,
        type: 3}
  - Level: 2
    records:
    - enemyType: 0
      atribute:
        level: 2
        HP: 60
        Amor: 0
        movementSpeed: 5.5
        flyHeight: 0
        damage: 7
        typeMove: 0
        attackCooldown: 1.8
        skillFlySpeed: 50
        skillType: 0
      enemyPrefabs: {fileID: 8846445596957168667, guid: b5e3394acc1b6934796a565e48cd1751,
        type: 3}
  - Level: 3
    records:
    - enemyType: 0
      atribute:
        level: 3
        HP: 120
        Amor: 0
        movementSpeed: 6
        flyHeight: 0
        damage: 10
        typeMove: 0
        attackCooldown: 1.6
        skillFlySpeed: 50
        skillType: 0
      enemyPrefabs: {fileID: 8846445596957168667, guid: b5e3394acc1b6934796a565e48cd1751,
        type: 3}
  - Level: 4
    records:
    - enemyType: 0
      atribute:
        level: 4
        HP: 240
        Amor: 0
        movementSpeed: 6.5
        flyHeight: 0
        damage: 14
        typeMove: 0
        attackCooldown: 1.4
        skillFlySpeed: 50
        skillType: 0
      enemyPrefabs: {fileID: 8846445596957168667, guid: b5e3394acc1b6934796a565e48cd1751,
        type: 3}
  - Level: 5
    records:
    - enemyType: 0
      atribute:
        level: 5
        HP: 480
        Amor: 0
        movementSpeed: 7
        flyHeight: 0
        damage: 19
        typeMove: 0
        attackCooldown: 1.2
        skillFlySpeed: 50
        skillType: 0
      enemyPrefabs: {fileID: 8846445596957168667, guid: b5e3394acc1b6934796a565e48cd1751,
        type: 3}
